<?xml version="1.0" encoding="iso-8859-1"?>
<!-- Generator: Adobe Illustrator 19.1.1, SVG Export Plug-In . SVG Version: 6.00 Build 0)  -->
<svg xmlns="http://www.w3.org/2000/svg" xmlns:xlink="http://www.w3.org/1999/xlink" version="1.1" id="Layer_1" x="0px" y="0px" viewBox="0 0 40 40" style="enable-background:new 0 0 40 40;" xml:space="preserve" width="480px" height="480px">
<g>
	<path style="fill:#F78F8F;" d="M19.519,37.5c-9.925,0-18-8.075-18-18s8.075-18,18-18s18,8.075,18,18S29.444,37.5,19.519,37.5z"/>
	<path style="fill:#C74343;" d="M19.519,2c9.65,0,17.5,7.85,17.5,17.5S29.168,37,19.519,37s-17.5-7.85-17.5-17.5S9.869,2,19.519,2    M19.519,1c-10.218,0-18.5,8.282-18.5,18.5S9.301,38,19.519,38s18.5-8.282,18.5-18.5S29.736,1,19.519,1L19.519,1z"/>
</g>
<g>
	<path style="fill:#C74343;" d="M34.148,30.796c-3.685-2.413-6.129-6.571-6.129-11.296c0-4.724,2.444-8.883,6.129-11.296   c-0.207-0.268-0.418-0.531-0.639-0.787c-3.91,2.597-6.49,7.036-6.49,12.083s2.58,9.486,6.49,12.083   C33.73,31.327,33.941,31.063,34.148,30.796z"/>
	<path style="fill:#C74343;" d="M5.529,7.417C5.308,7.673,5.097,7.936,4.89,8.204c3.685,2.413,6.129,6.571,6.129,11.296   c0,4.724-2.444,8.883-6.129,11.296c0.207,0.268,0.418,0.531,0.639,0.787c3.91-2.597,6.49-7.036,6.49-12.083   S9.439,10.014,5.529,7.417z"/>
</g>
<g>
	<path style="fill:#C74343;" d="M19.515,1C19.341,1,19.172,1.025,19,1.033v36.898c0.161,0.031,0.323,0.065,0.487,0.067   c0.006,0,0.012,0.001,0.018,0.001c0.167-0.001,0.331-0.037,0.495-0.068v-36.9C19.837,1.024,19.678,1,19.515,1L19.515,1z"/>
</g>
<g>
	<path style="fill:#F78F8F;" d="M37.931,20h-36.9C1.024,19.838,1,19.679,1,19.515C1,19.341,1.025,19.172,1.033,19h36.898   c0.031,0.161,0.065,0.323,0.067,0.487c0,0.006,0.001,0.012,0.001,0.018C37.999,19.672,37.963,19.836,37.931,20z"/>
	<path style="fill:#C74343;" d="M37.931,19H1.033C1.025,19.172,1,19.341,1,19.515C1,19.679,1.024,19.838,1.031,20h36.9   c0.032-0.164,0.068-0.328,0.068-0.495c0-0.006-0.001-0.012-0.001-0.018C37.996,19.323,37.962,19.161,37.931,19L37.931,19z"/>
</g>
</svg>
