<?xml version="1.0" encoding="iso-8859-1"?>
<!-- Generator: Adobe Illustrator 21.0.2, SVG Export Plug-In . SVG Version: 6.00 Build 0)  -->
<svg xmlns="http://www.w3.org/2000/svg" xmlns:xlink="http://www.w3.org/1999/xlink" version="1.1" id="Layer_1" x="0px" y="0px" viewBox="0 0 40 40" style="enable-background:new 0 0 40 40;" xml:space="preserve" width="480px" height="480px">
<g>
	<path style="fill:#DEB05B;" d="M8.911,33.071c-0.412,0-0.784-0.193-1.021-0.53c-0.237-0.336-0.294-0.752-0.156-1.14l9.431-26.406   C17.957,2.78,18.99,1.51,20,1.51s2.043,1.271,2.835,3.486l9.431,26.406c0.138,0.388,0.082,0.803-0.156,1.14   c-0.237,0.337-0.609,0.53-1.021,0.53H8.911z"/>
	<g>
		<path style="fill:#967A44;" d="M20,2.009c0.571,0,1.533,0.826,2.364,3.155l9.431,26.406c0.083,0.233,0.049,0.482-0.093,0.684    s-0.365,0.318-0.612,0.318H8.911c-0.247,0-0.47-0.116-0.612-0.318c-0.142-0.202-0.176-0.451-0.093-0.684l9.431-26.406    C18.467,2.836,19.429,2.009,20,2.009 M20,1.009c-1.198,0-2.397,1.273-3.306,3.818L7.263,31.234    c-0.407,1.139,0.438,2.337,1.647,2.337h22.179c1.21,0,2.054-1.198,1.647-2.337L23.306,4.828C22.397,2.282,21.198,1.009,20,1.009    L20,1.009z"/>
	</g>
</g>
<g>
	<g>
		<path style="fill:#F5CE85;" d="M20.684,38.5l0.432-1.357h-2.154l0.38,1.357H1.659l7.917-28.276c0.145-0.516,0.572-0.7,0.923-0.7    s0.779,0.184,0.923,0.7l3.133,11.189l2.804-4.439c0.575-0.911,1.562-1.455,2.64-1.455s2.064,0.544,2.64,1.455l3.254,5.152    l0.363-1.141c0.891-2.801,2.104-4.474,3.243-4.474s2.352,1.673,3.243,4.474L38.316,38.5H20.684z"/>
	</g>
	<g>
		<path style="fill:#967A44;" d="M10.5,10.024c0.13,0,0.36,0.044,0.442,0.335l2.829,10.105l0.607,2.167l1.202-1.903l2.203-3.489    c0.483-0.765,1.312-1.222,2.217-1.222s1.734,0.457,2.217,1.222l2.681,4.245l1.147,1.816l0.652-2.046l0.037-0.117    c0.969-3.045,2.096-4.126,2.767-4.126s1.798,1.08,2.767,4.126L37.632,38H21.368l0.017-0.054l0.415-1.303h-1.368H19.62h-1.318    l0.355,1.27L18.682,38H2.318l7.74-27.641C10.14,10.067,10.37,10.024,10.5,10.024 M10.5,9.024c-0.603,0-1.206,0.355-1.405,1.066    L1,39h19l-0.38-1.357h0.812L20,39h19l-5.78-18.167c-1.023-3.215-2.371-4.822-3.72-4.822s-2.697,1.607-3.72,4.822l-0.037,0.117    l-2.681-4.245c-0.711-1.125-1.886-1.688-3.062-1.688s-2.352,0.563-3.062,1.688l-2.203,3.489l-2.829-10.105    C11.706,9.379,11.103,9.024,10.5,9.024L10.5,9.024z"/>
	</g>
</g>
<g>
	<path style="fill:#A6714E;" d="M13.513,38.5c0.091-2.331,0.812-12,6.487-12s6.396,9.669,6.487,12H13.513z"/>
	<path style="fill:#7A4F34;" d="M20,27c4.893,0,5.797,8.116,5.963,11H14.037C14.203,35.116,15.107,27,20,27 M20,26c-7,0-7,13-7,13   h14C27,39,27,26,20,26L20,26z"/>
</g>
</svg>
