<?xml version="1.0" encoding="iso-8859-1"?>
<!-- Generator: Adobe Illustrator 19.2.1, SVG Export Plug-In . SVG Version: 6.00 Build 0)  -->
<svg xmlns="http://www.w3.org/2000/svg" xmlns:xlink="http://www.w3.org/1999/xlink" version="1.1" id="Layer_1" x="0px" y="0px" viewBox="0 0 40 40" style="enable-background:new 0 0 40 40;" xml:space="preserve" width="24px" height="24px">
<g>
	<rect x="6.5" y="2.5" style="fill:#FFC49C;" width="27" height="35"/>
	<path style="fill:#A16A4A;" d="M33,3v34H7V3H33 M34,2H6v36h28V2L34,2z"/>
</g>
<g>
	<rect x="8.5" y="4.5" style="fill:#735F63;" width="23" height="33"/>
	<g>
		<path style="fill:#4D3E40;" d="M31,5v32H9V5H31 M32,4H8v34h24V4L32,4z"/>
	</g>
</g>
<g>
	<rect x="20" y="5" style="fill:#4F4144;" width="5" height="32"/>
</g>
<g>
	<polygon style="fill:#FFC49C;" points="17.854,39.5 8.5,37.592 8.5,3.37 17.928,0.5 19.5,0.5 19.5,39.5  "/>
	<path style="fill:#A16A4A;" d="M19,1v38h-1.046L9,37.183V3.741L18.003,1H19 M20,0h-2.146L8,3v35l9.854,2H20V0L20,0z"/>
</g>
<rect x="18" y="1" style="fill:#FFD7BD;" width="1" height="38"/>
<g>
	<ellipse style="fill:#A16A4A;" cx="16.5" cy="20" rx="0.5" ry="1"/>
</g>
</svg>
