<?xml version="1.0" encoding="UTF-8"?>
<svg xmlns="http://www.w3.org/2000/svg" xmlns:xlink="http://www.w3.org/1999/xlink" viewBox="0 0 48 48" version="1.1" width="480px" height="480px">
<g id="surface1">
<path style=" fill:#37474F;" d="M 24 25 L 14 25 L 16 32 C 16 32 17.183594 33.0625 19 35 C 19 35 20.261719 38 24 38 C 27.738281 38 29 35 29 35 C 30.816406 33.0625 32 32 32 32 L 34 25 Z "/>
<path style=" fill:#FFBC64;" d="M 12 37 C 12 39.09375 12.339844 41.011719 13 43 C 13 43.550781 12.550781 44 12 44 L 3 44 C 3 42.96875 4 42.601563 4 42.601563 L 7.371094 41.25 C 7.75 41.101563 8 40.730469 8 40.324219 L 8 40.015625 C 4.222656 34.238281 3 30.945313 3 26.015625 C 3 18.101563 19.863281 14.910156 20 15 L 10 29 C 10 29 12 30.769531 12 34.015625 Z M 36 37 C 36 39.09375 35.660156 41.011719 35 43 C 35 43.550781 35.449219 44 36 44 L 45 44 C 45 42.96875 44 42.601563 44 42.601563 L 40.628906 41.25 C 40.25 41.101563 40 40.730469 40 40.324219 L 40 40.015625 C 43.777344 34.238281 45 30.945313 45 26.015625 C 45 18.101563 28.136719 14.910156 28 15 L 38 29 C 38 29 36 30.769531 36 34.015625 Z "/>
<path style=" fill:#FFA73E;" d="M 8.019531 24.953125 C 8.019531 24.941406 8.019531 24.925781 8.019531 24.90625 C 8.015625 24.882813 8.015625 24.847656 8.015625 24.816406 C 8.011719 24.765625 8.011719 24.703125 8.007813 24.632813 C 8.007813 24.589844 8.007813 24.542969 8.003906 24.492188 C 7.984375 23.492188 8.035156 22.492188 8.140625 21.496094 C 8.179688 21.089844 8.230469 20.679688 8.292969 20.273438 C 8.324219 20.074219 8.375 19.011719 8.535156 18.921875 C 7.71875 19.382813 6.945313 19.882813 6.25 20.433594 C 6.105469 21.5 6.023438 22.578125 6.007813 23.65625 C 6.003906 23.707031 6.003906 23.753906 6.003906 23.804688 C 6 23.960938 6 24.101563 6 24.230469 C 6 24.257813 6 24.285156 6 24.308594 C 6.003906 24.664063 6.019531 25.015625 6.042969 25.371094 L 6.113281 25.597656 C 6.195313 25.859375 8.332031 29.914063 11.671875 31.816406 C 9.242188 28.867188 8.023438 25 8.023438 25 C 8.023438 25 8.019531 24.972656 8.019531 24.953125 Z "/>
<path style=" fill:#FFA73E;" d="M 42.0625 24.777344 C 42.113281 24.085938 41.996094 23.253906 41.960938 22.644531 C 41.9375 22.277344 42.015625 20.640625 41.753906 20.433594 C 41.054688 19.882813 40.28125 19.382813 39.464844 18.921875 C 39.609375 19.003906 39.664063 20.023438 39.695313 20.226563 C 39.769531 20.726563 39.824219 21.230469 39.867188 21.734375 C 39.949219 22.648438 40.011719 23.574219 39.996094 24.492188 C 39.992188 24.542969 39.992188 24.589844 39.992188 24.632813 C 39.988281 24.703125 39.988281 24.765625 39.984375 24.816406 C 39.984375 24.847656 39.984375 24.882813 39.980469 24.90625 C 39.980469 24.925781 39.980469 24.941406 39.980469 24.953125 C 39.980469 24.972656 39.976563 25 39.976563 25 C 39.976563 25 38.757813 28.867188 36.328125 31.816406 C 39.667969 29.917969 41.804688 25.859375 41.886719 25.597656 C 41.886719 25.597656 41.957031 25.371094 41.957031 25.371094 C 42.011719 25.195313 42.046875 24.992188 42.0625 24.777344 Z "/>
<path style=" fill:#FFA73E;" d="M 24 10 C 24 10 10 9.703125 10 17 C 10 23.441406 14 27 14 27 C 14 27 17.054688 30 24 30 C 30.945313 30 34 27 34 27 C 34 27 38 23.441406 38 17 C 38 9.703125 24 10 24 10 Z "/>
<path style=" fill:#37474F;" d="M 4.296875 17.597656 L 12.296875 23.460938 L 11.703125 24.269531 L 3.707031 18.402344 Z "/>
<path style=" fill:#37474F;" d="M 6.390625 15.6875 L 14.414063 25.6875 L 13.632813 26.3125 L 5.609375 16.3125 Z "/>
<path style=" fill:#37474F;" d="M 7 16 C 7 16.550781 6.550781 17 6 17 C 5.449219 17 5 16.550781 5 16 C 5 15.449219 5.449219 15 6 15 C 6.550781 15 7 15.449219 7 16 Z "/>
<path style=" fill:#37474F;" d="M 5 18 C 5 18.550781 4.550781 19 4 19 C 3.449219 19 3 18.550781 3 18 C 3 17.449219 3.449219 17 4 17 C 4.550781 17 5 17.449219 5 18 Z "/>
<path style=" fill:#37474F;" d="M 43.703125 17.597656 L 44.292969 18.402344 L 36.292969 24.269531 L 35.703125 23.464844 Z "/>
<path style=" fill:#37474F;" d="M 41.609375 15.683594 L 42.390625 16.308594 L 34.367188 26.3125 L 33.589844 25.6875 Z "/>
<path style=" fill:#37474F;" d="M 43 16 C 43 16.550781 42.550781 17 42 17 C 41.449219 17 41 16.550781 41 16 C 41 15.449219 41.449219 15 42 15 C 42.550781 15 43 15.449219 43 16 Z "/>
<path style=" fill:#37474F;" d="M 45 18 C 45 18.550781 44.550781 19 44 19 C 43.449219 19 43 18.550781 43 18 C 43 17.449219 43.449219 17 44 17 C 44.550781 17 45 17.449219 45 18 Z "/>
<path style=" fill:#FFC67B;" d="M 34 23 C 32.359375 21.628906 29.601563 17.601563 29 15 C 28.0625 10.9375 24 10 24 10 C 24 10 19.9375 10.9375 19 15 C 18.398438 17.601563 15.640625 21.628906 14 23 C 11.585938 25.019531 14 27 14 27 L 15 27 C 24.148438 27 24 21 24 21 C 24 21 23.851563 27 33 27 L 34 27 C 34 27 36.414063 25.019531 34 23 Z "/>
<path style=" fill:#E2882D;" d="M 17.5 25 C 17.777344 25 18 25.222656 18 25.5 C 18 25.777344 17.777344 26 17.5 26 C 17.222656 26 17 25.777344 17 25.5 C 17 25.222656 17.222656 25 17.5 25 Z M 30.5 25 C 30.222656 25 30 25.222656 30 25.5 C 30 25.777344 30.222656 26 30.5 26 C 30.777344 26 31 25.777344 31 25.5 C 31 25.222656 30.777344 25 30.5 25 Z "/>
<path style=" fill:#FFE0B2;" d="M 14.023438 24 L 16.957031 31.824219 L 17.625 32.1875 C 18.042969 32.421875 18.363281 32.820313 18.511719 33.304688 L 18.910156 34.59375 C 19.164063 35.421875 18.875 36.335938 18.203125 36.820313 L 17.023438 37.675781 C 16.492188 38.058594 15.808594 38.105469 15.234375 37.796875 L 14.710938 37.511719 C 14.28125 37.277344 13.957031 36.871094 13.808594 36.378906 L 13.089844 33.984375 C 13.035156 33.796875 13.003906 33.597656 13.003906 33.398438 L 13.003906 33.203125 C 9.6875 30.277344 8.023438 25 8.023438 25 C 8.023438 25 7.761719 21.117188 9.023438 17 C 9.683594 14.839844 11.027344 13.574219 12.15625 12.855469 C 16.082031 9.835938 24 10 24 10 L 20 13 C 19 21 14.023438 24 14.023438 24 Z M 33.976563 24 L 31.042969 31.824219 L 30.375 32.1875 C 29.957031 32.421875 29.636719 32.820313 29.488281 33.304688 L 29.089844 34.59375 C 28.835938 35.421875 29.125 36.335938 29.796875 36.820313 L 30.976563 37.675781 C 31.507813 38.058594 32.191406 38.105469 32.765625 37.796875 L 33.289063 37.511719 C 33.71875 37.277344 34.042969 36.871094 34.191406 36.378906 L 34.910156 33.984375 C 34.964844 33.796875 34.996094 33.597656 34.996094 33.398438 L 34.996094 33.203125 C 38.3125 30.277344 39.976563 25 39.976563 25 C 39.976563 25 40.238281 21.117188 38.976563 17 C 38.316406 14.839844 36.972656 13.574219 35.84375 12.855469 C 31.917969 9.835938 24 10 24 10 L 28 13 C 29 21 33.976563 24 33.976563 24 Z "/>
<path style=" fill:#FFE9CC;" d="M 27.992188 9.492188 C 27.992188 9.492188 28.386719 7 24 7 C 19.613281 7 20.007813 9.492188 20.007813 9.492188 L 20.007813 12.488281 C 20.007813 14.96875 21.519531 16.976563 24 16.976563 C 26.480469 16.976563 27.992188 14.96875 27.992188 12.488281 Z "/>
<path style=" fill:#37474F;" d="M 29 9 C 29 7.15625 24 7 24 7 C 24 7 19 7.15625 19 9 C 19 10.84375 20 13 20 13 C 20 13 20.058594 10 21 10 C 21.558594 10 23.183594 11 24 11 C 24.820313 11 26.441406 10 27 10 C 28.050781 10 28 13 28 13 C 28 13 29 10.84375 29 9 Z "/>
<path style=" fill:#37474F;" d="M 23 7 L 21 5 C 21 5 21.875 4 24 4 C 26.125 4 27 5 27 5 L 24 8 Z "/>
</g>
</svg>
