<?xml version="1.0" encoding="iso-8859-1"?>
<!-- Generator: Adobe Illustrator 19.1.1, SVG Export Plug-In . SVG Version: 6.00 Build 0)  -->
<svg xmlns="http://www.w3.org/2000/svg" xmlns:xlink="http://www.w3.org/1999/xlink" version="1.1" id="Layer_1" x="0px" y="0px" viewBox="0 0 40 40" style="enable-background:new 0 0 40 40;" xml:space="preserve" width="24px" height="24px">
<g>
	<rect x="0.5" y="19.5" style="fill:#839CB2;" width="39" height="1"/>
	<polygon style="fill:#66798F;" points="40,19 0,19 0,21 40,21 40,19  "/>
</g>
<g>
	<rect x="5.5" y="11.5" style="fill:#C74343;" width="5" height="17"/>
	<path style="fill:#AB3434;" d="M10,12v16H6V12H10 M11,11H5v18h6V11L11,11z"/>
</g>
<g>
	<rect x="8.5" y="8.5" style="fill:#F78F8F;" width="4" height="23"/>
	<path style="fill:#C74343;" d="M12,9v22H9V9H12 M13,8H8v24h5V8L13,8z"/>
</g>
<g>
	<rect x="29.5" y="11.5" style="fill:#C74343;" width="5" height="17"/>
	<path style="fill:#AB3434;" d="M34,12v16h-4V12H34 M35,11h-6v18h6V11L35,11z"/>
</g>
<g>
	<rect x="27.5" y="8.5" style="fill:#F78F8F;" width="4" height="23"/>
	<path style="fill:#C74343;" d="M31,9v22h-3V9H31 M32,8h-5v24h5V8L32,8z"/>
</g>
<rect x="3" y="19" style="fill:#36404D;" width="2" height="2"/>
<rect x="35" y="19" style="fill:#36404D;" width="2" height="2"/>
</svg>
