<?xml version="1.0" encoding="UTF-8"?>
<svg xmlns="http://www.w3.org/2000/svg" xmlns:xlink="http://www.w3.org/1999/xlink" viewBox="0 0 48 48" version="1.1" width="24px" height="24px">
<g id="surface1">
<path style=" fill:#795548;" d="M 24 12.96875 C 23.445313 12.96875 23 12.523438 23 11.96875 C 23 6.890625 26.480469 5.074219 26.625 5 L 27.511719 6.792969 C 27.421875 6.839844 25 8.179688 25 11.96875 C 25 12.523438 24.554688 12.96875 24 12.96875 Z "/>
<path style=" fill:#795548;" d="M 22.496094 12.90625 C 22.023438 12.90625 21.601563 12.566406 21.515625 12.085938 C 21.101563 9.796875 18.175781 9.894531 18.046875 9.902344 L 17.945313 7.90625 C 19.609375 7.835938 22.902344 8.503906 23.484375 11.730469 C 23.582031 12.273438 23.21875 12.792969 22.675781 12.890625 C 22.617188 12.902344 22.558594 12.90625 22.496094 12.90625 Z "/>
<path style=" fill:#FFCC80;" d="M 24 43 C 17.886719 43 10.136719 40.195313 7.972656 32.351563 C 6.257813 31.894531 5 30.324219 5 28.5 C 5 26.601563 6.332031 25.003906 8.109375 24.601563 C 8.980469 16.910156 15.792969 11 24 11 C 32.210938 11 39.023438 16.910156 39.890625 24.609375 C 41.679688 25.019531 43 26.609375 43 28.5 C 43 30.324219 41.742188 31.894531 40.027344 32.351563 C 37.863281 40.195313 30.113281 43 24 43 Z "/>
<path style=" fill:#4E342E;" d="M 32.25 27 C 32.25 28.242188 31.242188 29.25 30 29.25 C 28.757813 29.25 27.75 28.242188 27.75 27 C 27.75 25.757813 28.757813 24.75 30 24.75 C 31.242188 24.75 32.25 25.757813 32.25 27 Z "/>
<path style=" fill:#4E342E;" d="M 20.25 27 C 20.25 28.242188 19.242188 29.25 18 29.25 C 16.757813 29.25 15.75 28.242188 15.75 27 C 15.75 25.757813 16.757813 24.75 18 24.75 C 19.242188 24.75 20.25 25.757813 20.25 27 Z "/>
<path style=" fill:#FF5722;" d="M 24 37 C 20.894531 37 18.960938 35.5 18.878906 35.433594 C 18.445313 35.09375 18.371094 34.464844 18.714844 34.03125 C 19.058594 33.597656 19.6875 33.523438 20.121094 33.867188 C 20.128906 33.875 21.617188 35 24 35 C 26.378906 35 27.863281 33.878906 27.878906 33.867188 C 28.316406 33.523438 28.941406 33.597656 29.285156 34.03125 C 29.628906 34.464844 29.554688 35.09375 29.121094 35.433594 C 29.039063 35.5 27.105469 37 24 37 Z "/>
</g>
</svg>
