<?xml version="1.0" encoding="iso-8859-1"?>
<!-- Generator: Adobe Illustrator 19.2.0, SVG Export Plug-In . SVG Version: 6.00 Build 0)  -->
<svg xmlns="http://www.w3.org/2000/svg" xmlns:xlink="http://www.w3.org/1999/xlink" version="1.1" id="Layer_1" x="0px" y="0px" viewBox="0 0 40 40" style="enable-background:new 0 0 40 40;" xml:space="preserve" width="480px" height="480px">
<g>
	<g>
		<path style="fill:#FFEEA3;" d="M11,37.5c-0.827,0-1.5-0.673-1.5-1.5v-9c0-0.276,0.224-0.5,0.5-0.5h20c0.276,0,0.5,0.224,0.5,0.5v9    c0,0.827-0.673,1.5-1.5,1.5H11z"/>
		<path style="fill:#BA9B48;" d="M30,27v9c0,0.551-0.449,1-1,1H11c-0.551,0-1-0.449-1-1v-9H30 M30,26H10c-0.552,0-1,0.448-1,1v9    c0,1.105,0.895,2,2,2h18c1.105,0,2-0.895,2-2v-9C31,26.448,30.552,26,30,26L30,26z"/>
	</g>
	<g>
		<path style="fill:#BAE0BD;" d="M9,32l3,3l3-3l3,3l3-3l0,0l0,0c0.438-0.657,0.67-3.014,0.517-4.793C21.002,21.182,15.866,11,4,11v2    c3.844,0.688,5,3.202,5,5c0,4.119-2,5.05-2,9C7,30.32,9,32,9,32z"/>
	</g>
	<g>
		<path style="fill:#72B289;" d="M21.57,28.57C21.55,30.03,21.33,31.5,21,32l-3,3l-3-3l-3,3l-3-3c0,0-1.62-1.36-1.94-4.06L8,27l3,3    l3-3l3,3l3-3L21.57,28.57z"/>
	</g>
	<g>
		<path style="fill:#5E9C76;" d="M5,12.026c10.38,0.544,15.03,9.535,15.521,15.266c0.15,1.757-0.111,3.623-0.324,4.097L18,33.586    l-2.293-2.293L15,30.586l-0.707,0.707L12,33.586l-2.293-2.293l-0.031-0.03l-0.027-0.023C9.582,31.181,8,29.776,8,27    c0-1.761,0.423-2.81,0.912-4.025C9.422,21.71,10,20.275,10,18c0-2.128-1.328-4.827-5-5.802V12.026 M4,11v2    c3.844,0.688,5,3.202,5,5c0,4.119-2,5.05-2,9c0,3.32,2,5,2,5l3,3l3-3l3,3l3-3c0.438-0.657,0.669-3.014,0.517-4.793    C21.002,21.182,15.866,11,4,11L4,11z"/>
	</g>
	<g>
		<circle style="fill:#FFEEA3;" cx="3.5" cy="11.5" r="3"/>
		<path style="fill:#BA9B48;" d="M3.5,9C4.879,9,6,10.122,6,11.5S4.879,14,3.5,14S1,12.878,1,11.5S2.122,9,3.5,9 M3.5,8    C1.567,8,0,9.567,0,11.5S1.567,15,3.5,15C5.433,15,7,13.433,7,11.5S5.433,8,3.5,8L3.5,8z"/>
	</g>
	<g>
		<path style="fill:#F0EDF7;" d="M26,31.293l-3,3l-2.646-2.646C20.141,31.31,19.5,30.022,19.5,27c0-7.031,3.74-16.271,14.239-19.404    l0.571,1.142C31.202,10.039,29.5,11.895,29.5,14c0,2.366,1.05,4.614,2.064,6.789C32.56,22.92,33.5,24.935,33.5,27    c0,3.137-1.735,4.548-1.809,4.606L29,34.293L26,31.293z"/>
		<path style="fill:#8B75A1;" d="M33.481,8.199l0.146,0.292C30.633,9.866,29,11.797,29,14c0,2.477,1.073,4.776,2.112,7    C32.083,23.081,33,25.045,33,27c0,2.869-1.555,4.163-1.614,4.21l-0.049,0.038l-0.044,0.044L29,33.586l-2.293-2.293L26,30.586    l-0.707,0.707L23,33.586l-2.215-2.215C20.552,30.979,20,29.761,20,27C20,20.232,23.55,11.367,33.481,8.199 M34,7    c-11.75,3.281-15,13.64-15,20c0,2.557,0.453,4.18,1,5l3,3l3-3l3,3l3-3c0,0,2-1.554,2-5c0-4.379-4-8.516-4-13    c0-1.937,1.719-3.75,5-5L34,7L34,7z"/>
	</g>
	<g>
		<path style="fill:#F0EDF7;" d="M35,9l-1-2c-11.75,3.281-15,13.64-15,20c0,2.557,0.453,4.18,1,5l3,3l3-3l3,3l3-3l0,0    c0,0,2-1.554,2-5c0-4.379-4-8.516-4-13C30,12.063,31.719,10.25,35,9z"/>
	</g>
	<g>
		<path style="fill:#DCD5F2;" d="M33.8,28.8c-0.19,0.83-0.5,1.5-0.8,1.99C32.5,31.61,32,32,32,32l-3,3l-3-3l-3,3l-3-3    c-0.48-0.71-0.88-2.02-0.98-4.02L20,27l3,3l3-3l3,3l3-3L33.8,28.8z"/>
	</g>
	<g>
		<path style="fill:#8B75A1;" d="M33.481,8.199l0.146,0.292C30.633,9.866,29,11.797,29,14c0,2.477,1.073,4.776,2.112,7    C32.083,23.081,33,25.045,33,27c0,2.869-1.555,4.163-1.614,4.21l-0.049,0.038l-0.044,0.044L29,33.586l-2.293-2.293L26,30.586    l-0.707,0.707L23,33.586l-2.215-2.215C20.552,30.979,20,29.761,20,27C20,20.232,23.55,11.367,33.481,8.199 M34,7    c-11.75,3.281-15,13.64-15,20c0,2.557,0.453,4.18,1,5l3,3l3-3l3,3l3-3c0,0,2-1.554,2-5c0-4.379-4-8.516-4-13    c0-1.937,1.719-3.75,5-5L34,7L34,7z"/>
	</g>
	<g>
		<circle style="fill:#FFEEA3;" cx="35.5" cy="6.5" r="3"/>
		<path style="fill:#BA9B48;" d="M35.5,4C36.879,4,38,5.122,38,6.5S36.879,9,35.5,9S33,7.879,33,6.5S34.121,4,35.5,4 M35.5,3    C33.567,3,32,4.567,32,6.5c0,1.933,1.567,3.5,3.5,3.5c1.933,0,3.5-1.567,3.5-3.5C39,4.567,37.433,3,35.5,3L35.5,3z"/>
	</g>
</g>
</svg>
