<?xml version="1.0" encoding="UTF-8"?>
<svg xmlns="http://www.w3.org/2000/svg" xmlns:xlink="http://www.w3.org/1999/xlink" viewBox="0 0 48 48" version="1.1" width="480px" height="480px">
<g id="surface1">
<path style=" fill:#FFBA57;" d="M 21 1 C 18.773438 3.015625 14.773438 8.316406 14 12 C 12.136719 14.417969 12.996094 16.46875 13.996094 18.476563 C 15.0625 20.296875 14.800781 21.746094 15.273438 24 C 15.667969 25.835938 16.890625 28.535156 17.558594 30.328125 C 19.046875 34.332031 20.511719 38.917969 19.445313 40.8125 C 18.324219 42.824219 17.554688 42.464844 15.675781 43.269531 C 13.707031 44.121094 12.460938 44.484375 11.730469 44.621094 C 9.820313 44.976563 10.003906 45.152344 10.003906 45.476563 C 10.003906 46.332031 10.789063 46.964844 11.660156 46.964844 C 12.152344 46.964844 12.71875 46.828125 13.09375 46.605469 C 13.621094 46.964844 14.199219 47 14.839844 47 C 20.1875 47 19.167969 46.503906 21.179688 46.503906 C 21.996094 46.503906 23.273438 47 25.199219 47 C 27.121094 47 28 45.617188 28 44.441406 C 28 42.335938 26.082031 41.390625 25.222656 35.363281 C 24.320313 29.066406 26 30.664063 26 23 C 26 18.617188 22.847656 16.75 23 16 C 23.167969 15.269531 24.582031 13.808594 26.1875 13.046875 C 28.054688 12.15625 35.851563 7.105469 38 1 Z "/>
<path style=" fill:#F9A825;" d="M 19 16 C 22.285156 14.90625 23 16 23 16 C 23.167969 15.269531 24.582031 13.808594 26.1875 13.046875 C 26.429688 12.933594 26.777344 12.742188 27.195313 12.496094 C 25.804688 13.0625 23.722656 13.722656 23 13 C 21.902344 11.90625 29 2 29 2 C 29 2 20.097656 9.429688 19 16 Z "/>
<path style=" fill:#F9A825;" d="M 23 30 C 24.480469 30 25.164063 29.050781 25.644531 27.71875 C 25.738281 27.207031 25.820313 26.613281 25.882813 25.902344 C 25.683594 26.546875 25.355469 27 24 27 C 21.808594 27 19 22.191406 19 20 C 17.90625 26.574219 23 37 23 37 C 23 37 21.902344 31.09375 23 30 Z "/>
</g>
</svg>
