<?xml version="1.0" encoding="utf-8"?>
<!-- Generator: Adobe Illustrator 21.0.2, SVG Export Plug-In . SVG Version: 6.00 Build 0)  -->
<svg xmlns="http://www.w3.org/2000/svg" xmlns:xlink="http://www.w3.org/1999/xlink" version="1.1" id="Layer_1" x="0px" y="0px" viewBox="0 0 48 48" style="enable-background:new 0 0 48 48;" xml:space="preserve" width="480px" height="480px">
<polygon style="fill:#F44336;" points="27.6,42.9 22.3,16.5 17.7,34.3 13.5,22.8 12.7,25 3,25 3,23 11.3,23 13.6,17.2 17.3,27.5   22.6,7.5 27.7,33.1 31.4,16.2 34.7,26.1 35.9,23 45,23 45,25 37.3,25 34.5,31.9 31.8,23.8 "/>
<circle style="fill:#DD2C00;" cx="3" cy="24" r="2"/>
<circle style="fill:#DD2C00;" cx="45" cy="24" r="2"/>
</svg>
