<?xml version="1.0" encoding="UTF-8"?>
<svg xmlns="http://www.w3.org/2000/svg" xmlns:xlink="http://www.w3.org/1999/xlink" viewBox="0 0 48 48" version="1.1" width="480px" height="480px">
<g id="surface1">
<path style=" fill:#4CAF50;" d="M 4 10 L 44 10 L 44 38 L 4 38 Z "/>
<path style=" fill:#A5D6A7;" d="M 23 10 L 25 10 L 25 38 L 23 38 Z "/>
<path style=" fill:#A5D6A7;" d="M 24 16 C 19.601563 16 16 19.601563 16 24 C 16 28.398438 19.601563 32 24 32 C 28.398438 32 32 28.398438 32 24 C 32 19.601563 28.398438 16 24 16 Z M 24 30 C 20.699219 30 18 27.300781 18 24 C 18 20.699219 20.699219 18 24 18 C 27.300781 18 30 20.699219 30 24 C 30 27.300781 27.300781 30 24 30 Z "/>
<path style=" fill:#A5D6A7;" d="M 44 19 L 44 17 L 37 17 L 37 31 L 44 31 L 44 29 L 39 29 L 39 19 Z "/>
<path style=" fill:#A5D6A7;" d="M 4 19 L 9 19 L 9 29 L 4 29 L 4 31 L 11 31 L 11 17 L 4 17 Z "/>
</g>
</svg>
