<?xml version="1.0" encoding="utf-8"?>
<!-- Generator: Adobe Illustrator 21.0.2, SVG Export Plug-In . SVG Version: 6.00 Build 0)  -->
<svg xmlns="http://www.w3.org/2000/svg" xmlns:xlink="http://www.w3.org/1999/xlink" version="1.1" id="Layer_1" x="0px" y="0px" viewBox="0 0 40 40" style="enable-background:new 0 0 40 40;" xml:space="preserve" width="480px" height="480px">
<rect x="5.3" y="26" style="fill:#967A44;" width="29.3" height="1"/>
<g>
	<rect x="5.5" y="13.5" style="fill:#D6AA70;" width="29" height="4"/>
	<g>
		<path style="fill:#8C6A3F;" d="M34,14v3H6v-3H34 M35,13H5v5h30V13L35,13z"/>
	</g>
</g>
<g>
	<rect x="3.5" y="13.5" style="fill:#F5CE85;" width="3" height="20"/>
	<path style="fill:#967A44;" d="M6,14v19H4V14H6 M7,13H3v21h4V13L7,13z"/>
</g>
<g>
	<rect x="33.5" y="13.5" style="fill:#F5CE85;" width="3" height="20"/>
	<path style="fill:#967A44;" d="M36,14v19h-2V14H36 M37,13h-4v21h4V13L37,13z"/>
</g>
<g>
	<rect x="0.5" y="10.5" style="fill:#F5CE85;" width="39" height="3"/>
	<path style="fill:#967A44;" d="M39,11v2H1v-2H39 M40,10H0v4h40V10L40,10z"/>
</g>
</svg>
