<?xml version="1.0" encoding="iso-8859-1"?>
<!-- Generator: Adobe Illustrator 22.1.0, SVG Export Plug-In . SVG Version: 6.00 Build 0)  -->
<svg xmlns="http://www.w3.org/2000/svg" xmlns:xlink="http://www.w3.org/1999/xlink" version="1.1" id="Layer_1" x="0px" y="0px" viewBox="0 0 128 128" style="enable-background:new 0 0 128 128;" xml:space="preserve" width="512px" height="512px">
<path style="fill:#454B54;" d="M73.9,26c-0.101,0-0.101,0-0.2,0c-3.7,0-7.2-1.3-10-3.5c-2.8,2.1-6.2,3.3-9.8,3.3  c-3.7,0-7.1-1.2-9.9-3.3c-2.8,2.2-6.2,3.3-9.9,3.3s-7.1-1.2-9.9-3.3c-2.8,2.2-6.2,3.3-9.9,3.3c-4.7,0-9.2-2-12.2-5.5  c-1-1.3-0.8-3.2,0.5-4.3s3.2-0.9,4.2,0.3c1.8,2.2,4.6,3.4,7.6,3.4s5.8-1.2,7.6-3.4c0.6-0.7,1.4-1.1,2.3-1.1s1.7,0.4,2.3,1.1  c1.8,2.2,4.6,3.4,7.6,3.4s5.8-1.2,7.6-3.4c0.6-0.7,1.4-1.1,2.3-1.1s1.7,0.4,2.3,1.1c1.8,2.2,4.6,3.4,7.6,3.4s5.8-1.2,7.6-3.4  c0.6-0.7,1.4-1.1,2.3-1.1s1.7,0.4,2.3,1.1l0.2,0.2c1.8,2.1,4.6,3.4,7.5,3.4c2.899,0,5.699-1.2,7.6-3.3l0.3-0.4  c0.601-0.7,1.4-1,2.3-1s1.7,0.4,2.301,1.1c1.8,2.2,4.6,3.4,7.6,3.4c1.7,0,3,1.3,3,3s-1.3,3-3,3c-3.6,0-7.1-1.2-9.8-3.3  C81.2,24.7,77.6,26,73.9,26z"/>
<circle style="fill:#454B54;" cx="123.5" cy="18.3" r="3"/>
<path style="fill:#454B54;" d="M93.8,25.8L93.8,25.8c-4.7,0-9.2-2-12.2-5.5c-1-1.3-0.8-3.2,0.4-4.3c1.3-1.1,3.2-0.9,4.2,0.3  c1.8,2.2,4.6,3.4,7.6,3.4s5.8-1.2,7.601-3.4c0.6-0.7,1.399-1.1,2.3-1.1c0.899,0,1.7,0.4,2.3,1.1c1.8,2.1,4.5,3.3,7.3,3.4  c1.7,0,3,1.4,2.9,3.1c0,1.7-1.4,3-3.101,2.9c-3.5-0.1-6.8-1.3-9.5-3.3C101,24.6,97.5,25.8,93.8,25.8z"/>
<path style="fill:#FFFFFF;" d="M109,92l-17.4,11.6c-8.2,5.5-17.9,8.4-27.7,8.4H34c-13.8,0-25-11.2-25-25s11.2-25,25-25h29.9  c9.9,0,19.5,2.9,27.7,8.4L109,82V92"/>
<path style="fill:#7CA5C6;" d="M109,92l-17.4,11.6c-8.2,5.5-17.9,8.4-27.7,8.4H34c-13.8,0-25-11.2-25-25h100V92"/>
<path style="fill:#7196B4;" d="M11.076,87H9c0,13.8,11.2,25,25,25h29.9l0,0c9.8,0,19.5-2.9,27.7-8.4l0,0L109,92v-4.3l-17.4,8.8  c-8.5,4.3-17.899,5.5-27.7,5.5H34C23.746,102,14.927,95.823,11.076,87"/>
<polyline style="fill:#7CA5C6;" points="39,47 53.9,47 63.9,62 39,62 39,47 "/>
<polyline style="fill:#7196B4;" points="59.2,55 39,55 39,62 63.9,62 59.2,55 "/>
<path style="fill:#454B54;" d="M44.7,48c-1.7,0-3-1.3-3-3V10.3h-5.5c-1.7,0-3-1.3-3-3s1.3-3,3-3h8.5c1.7,0,3,1.3,3,3V45  C47.7,46.6,46.3,48,44.7,48z"/>
<circle style="fill:#FFFFFF;" cx="33" cy="87" r="5"/>
<circle style="fill:#FFFFFF;" cx="53" cy="87" r="5"/>
<circle style="fill:#FFFFFF;" cx="73" cy="87" r="5"/>
<path style="fill:#454B54;" d="M33,95c-4.4,0-8-3.6-8-8s3.6-8,8-8s8,3.6,8,8S37.4,95,33,95z M33,85c-1.1,0-2,0.9-2,2s0.9,2,2,2  c1.1,0,2-0.9,2-2S34.1,85,33,85z"/>
<path style="fill:#454B54;" d="M53,95c-4.4,0-8-3.6-8-8s3.6-8,8-8s8,3.6,8,8S57.4,95,53,95z M53,85c-1.1,0-2,0.9-2,2s0.9,2,2,2  s2-0.9,2-2S54.1,85,53,85z"/>
<path style="fill:#454B54;" d="M73,95c-4.4,0-8-3.6-8-8s3.6-8,8-8s8,3.6,8,8S77.4,95,73,95z M73,85c-1.1,0-2,0.9-2,2s0.9,2,2,2  s2-0.9,2-2S74.1,85,73,85z"/>
<path style="fill:#454B54;" d="M118.2,81c-1.7,0-3-1.3-3-3v-5c0-1.7,1.3-3,3-3s3,1.3,3,3v5C121.2,79.7,119.8,81,118.2,81z"/>
<path style="fill:#454B54;" d="M118.2,104c-1.7,0-3-1.3-3-3v-5c0-1.7,1.3-3,3-3s3,1.3,3,3v5C121.2,102.7,119.8,104,118.2,104z"/>
<path style="fill:#454B54;" d="M119.3,84H112v-2c0-1-0.5-1.9-1.3-2.5L93.3,67.9C85,62.4,75.4,59.3,65.5,59l-9.1-13.7  c-0.6-0.8-1.5-1.3-2.5-1.3H39c-1.7,0-3,1.3-3,3v12h-2C18.6,59,6,71.6,6,87s12.6,28,28,28h29.9c10.5,0,20.7-3.1,29.4-8.9l17.4-11.6  c0.8-0.6,1.3-1.5,1.3-2.5v-2h7.3c1.7,0,3-1.3,3-3S121,84,119.3,84z M42,50h10.3l6,9H42V50z M106,90.4l-16.1,10.7  c-7.7,5.2-16.8,7.9-26.1,7.9H34c-12.1,0-22-9.9-22-22s9.9-22,22-22h5h24.9c9.3,0,18.3,2.7,26.1,7.9l16,10.7V90.4z"/>
</svg>
