<?xml version="1.0" encoding="iso-8859-1"?>
<!-- Generator: Adobe Illustrator 19.1.1, SVG Export Plug-In . SVG Version: 6.00 Build 0)  -->
<svg xmlns="http://www.w3.org/2000/svg" xmlns:xlink="http://www.w3.org/1999/xlink" version="1.1" id="Layer_1" x="0px" y="0px" viewBox="0 0 40 40" style="enable-background:new 0 0 40 40;" xml:space="preserve" width="480px" height="480px">
<g>
	<path style="fill:#FFEEA3;" d="M18,17.5c-0.5,0-1.318-0.406-1.593-0.791l-4.62-6.827c-0.285-0.399-0.361-0.903-0.209-1.356l2-6   C13.781,1.913,14.354,1.5,15.003,1.5c0.16,0,0.319,0.026,0.472,0.077c0.784,0.262,1.21,1.113,0.949,1.897l-1.754,5.261l3.057,4.765   h4.547l3.057-4.765l-1.754-5.261c-0.261-0.784,0.165-1.635,0.949-1.897C24.68,1.525,24.839,1.5,24.999,1.5   c0.647,0,1.22,0.413,1.424,1.026l2,6c0.151,0.454,0.075,0.957-0.203,1.346l-4.635,6.848C23.318,17.094,22.5,17.5,22,17.5H18z"/>
	<path style="fill:#BA9B48;" d="M24.999,2c0.432,0,0.813,0.275,0.95,0.684l2,6c0.101,0.303,0.05,0.638-0.149,0.918l-4.613,6.816   C23.004,16.674,22.339,17,22,17h-4c-0.339,0-1.004-0.326-1.172-0.56l-4.642-6.858c-0.185-0.26-0.236-0.595-0.135-0.898l2-6   C14.188,2.275,14.57,2,15.003,2c0.106,0,0.212,0.017,0.313,0.051c0.523,0.175,0.807,0.742,0.633,1.265L14.271,8.35l-0.151,0.454   l0.258,0.403l2.781,4.334L17.454,14H18h4h0.546l0.295-0.46l2.781-4.334l0.258-0.403L25.729,8.35l-1.678-5.034   c-0.174-0.523,0.11-1.091,0.633-1.265C24.787,2.017,24.893,2,24.999,2 M24.999,1c-0.209,0-0.422,0.033-0.632,0.103   c-1.048,0.35-1.614,1.482-1.265,2.53l1.678,5.034L22,13h-4l-2.781-4.333l1.678-5.034c0.349-1.048-0.217-2.18-1.265-2.53   C15.424,1.033,15.212,1,15.003,1c-0.837,0-1.621,0.528-1.9,1.367l-2,6C10.9,8.975,11,9.642,11.373,10.163L16,17   c0.375,0.525,1.354,1,2,1h4c0.646,0,1.625-0.475,2-1l4.627-6.837C29,9.642,29.1,8.975,28.897,8.368l-2-6   C26.618,1.529,25.836,1,24.999,1L24.999,1z"/>
</g>
<g>
	<path style="fill:#DCD5F2;" d="M18.963,38.5c-0.661,0-1.245-0.421-1.455-1.048C17.503,37.429,16.5,32.839,16.5,27v-6.5h7v0.7   l3.552,3.731c0.434,0.434,0.564,1.068,0.341,1.626l-2,5C25.164,32.13,24.617,32.5,24,32.5c-0.191,0-0.378-0.036-0.556-0.108   c-0.373-0.148-0.664-0.434-0.822-0.802c-0.158-0.368-0.163-0.776-0.014-1.148l1.647-4.118l-3.892-3.148l-0.244,0.647   C20.093,23.89,19.5,25.479,19.5,27c0,5.261,0.913,9.453,0.922,9.48c0.265,0.803-0.171,1.674-0.973,1.94   C19.292,38.474,19.127,38.5,18.963,38.5z"/>
	<path style="fill:#8B75A1;" d="M17,21l6,0v0.4l0.276,0.29l3.431,3.604c0.283,0.283,0.37,0.706,0.221,1.078l-2,5   C24.776,31.753,24.411,32,24,32c-0.127,0-0.251-0.024-0.371-0.072c-0.248-0.099-0.443-0.289-0.548-0.534s-0.108-0.517-0.009-0.765   l1.51-3.776l0.274-0.685l-0.574-0.464l-3.068-2.481l-1.076-0.87l-0.489,1.295C19.624,23.717,19,25.389,19,27   c0,5.427,0.938,9.609,0.947,9.636c0.179,0.543-0.115,1.13-0.656,1.31C19.184,37.982,19.074,38,18.963,38   c-0.445,0-0.839-0.284-0.966-0.662C17.866,36.83,17,32.259,17,27V21 M16,20v7c0,5.708,0.975,10.432,1.034,10.61   c0.284,0.852,1.078,1.39,1.928,1.39c0.213,0,0.431-0.034,0.644-0.105c1.066-0.354,1.642-1.507,1.29-2.573   C20.884,36.284,20,32.131,20,27c0-1.447,0.586-3,0.586-3l3.068,2.481l-1.51,3.776c-0.41,1.025,0.088,2.189,1.114,2.6   C23.501,32.955,23.752,33,24,33c0.793,0,1.544-0.476,1.857-1.258l2-5c0.297-0.743,0.123-1.591-0.443-2.157L24,21v-1L16,20L16,20z"/>
</g>
<g>
	<path style="fill:#FFB5D2;" d="M16.5,17.424c1-0.337,1-1.715,1-2.424v-2.5h5V15c0,0.709,0,2.087,1,2.424v3.311   c-1.634,1.063-4.146,1.693-7,1.759V17.424z"/>
	<path style="fill:#EA4C89;" d="M22,13v2c0,0.589,0,2.133,1,2.745v2.713c-1.457,0.867-3.58,1.403-6,1.519v-4.232   c1-0.612,1-2.156,1-2.745v-2H22 M23,12h-6v3c0,0.951-0.049,2-1,2v6c3.147,0,6.117-0.667,8-2v-4c-0.952,0-1-1.048-1-2V12L23,12z"/>
</g>
<g>
	<circle style="fill:#FFEEA3;" cx="20" cy="8" r="2.5"/>
	<g>
		<path style="fill:#BA9B48;" d="M20,6c1.103,0,2,0.897,2,2s-0.897,2-2,2s-2-0.897-2-2S18.897,6,20,6 M20,5c-1.657,0-3,1.343-3,3    c0,1.657,1.343,3,3,3s3-1.343,3-3C23,6.343,21.657,5,20,5L20,5z"/>
	</g>
</g>
</svg>
